Introdução ao geoprocessamento para Etnobiologia e Conservação da Biodiversidade
…
Long para wide

1. **key**: variável categórica que irá definir os nomes das colunas

2. **value**: variável numérica que irá preencher os dados

```r
si_spread <- si[, c("id", "record", "species_number")] %>% 
  spread(key = record, value = species_number, fill = 0)
si_spread
```

```
## # A tibble: 1,163 x 3
##    id         ab    co
##    <chr>   <dbl> <dbl>
##  1 amp1001    19     0
##  2 amp1002     0    16
##  3 amp1003     0    14
##  4 amp1004     0    13
##  5 amp1005     0    30
##  6 amp1006     0    42
##  7 amp1007     0    23
##  8 amp1008     0    19
##  9 amp1009    13     0
## 10 amp1010     1     0
## # … with 1,153 more rows
```
…
Long para wide

1. **key**: variável categórica que irá definir os nomes das colunas

2. **value**: variável numérica que irá preencher os dados

```r
si_spread <- si[, c("id", "state_abbreviation", "species_number")] %>% 
  spread(key = state_abbreviation, value = species_number, fill = 0)
si_spread
```

```
## # A tibble: 1,163 x 24
##    id    `AR-N` `BR-AL` `BR-BA` `BR-CE` `BR-ES` `BR-GO` `BR-MG` `BR-MS`
##    <chr>  <dbl>   <dbl>   <dbl>   <dbl>   <dbl>   <dbl>   <dbl>   <dbl>
##  1 amp1…      0       0       0       0       0       0       0       0
##  2 amp1…      0       0       0      16       0       0       0       0
##  3 amp1…      0       0       0      14       0       0       0       0
##  4 amp1…      0       0       0      13       0       0       0       0
##  5 amp1…      0       0       0      30       0       0       0       0
##  6 amp1…      0       0       0      42       0       0       0       0
##  7 amp1…      0       0       0      23       0       0       0       0
##  8 amp1…      0       0       0      19       0       0       0       0
##  9 amp1…      0       0       0      13       0       0       0       0
## 10 amp1…      0       0       0       0       0       0       0       0
## # … with 1,153 more rows, and 15 more variables: `BR-PB` <dbl>,
## #   `BR-PE` <dbl>, `BR-PI` <dbl>, `BR-PR` <dbl>, `BR-RJ` <dbl>,
## #   `BR-RN` <dbl>, `BR-RS` <dbl>, `BR-SC` <dbl>, `BR-SE` <dbl>,
## #   `BR-SP` <dbl>, `PY-13` <dbl>, `PY-14` <dbl>, `PY-2` <dbl>,
## #   `PY-4` <dbl>, `PY-7` <dbl>
```
…
Long para wide

1. **key**: variável categórica que irá definir os nomes das colunas

2. **value**: variável numérica que irá preencher os dados

```r
sp_spread <- sp[1:1000, c("id", "species", "individuals")] %>% 
  spread(key = species, value = individuals, fill = 0)
sp_spread
```

```
## # A tibble: 91 x 179
##    id    `Adelophryne ba… `Adenomera cf. … `Adenomera hyla…
##    <chr>            <dbl>            <dbl>            <dbl>
##  1 amp1…                0                0                0
##  2 amp1…                0                0                0
##  3 amp1…                0                0                0
##  4 amp1…                0                0                0
##  5 amp1…                0                0                0
##  6 amp1…                0                0                0
##  7 amp1…                0                0                0
##  8 amp1…                0                0                0
##  9 amp1…               72                0                0
## 10 amp1…                0                0                0
## # … with 81 more rows, and 175 more variables: `Adenomera
## #   marmorata` <dbl>, `Adenomera sp.` <dbl>, `Adenomera sp. n.` <dbl>,
## #   `Agalychnis granulosa` <dbl>, `Boana albomarginata` <dbl>, `Boana
## #   atlantica` <dbl>, `Boana crepitans` <dbl>, `Boana exastis` <dbl>,
## #   `Boana faber` <dbl>, `Boana raniceps` <dbl>, `Boana
## #   semilineata` <dbl>, `Bufo crucifer` <dbl>, `Bufo gr.
## #   margaritifer` <dbl>, `Bufo granulosus` <dbl>, `Bufo schneideri` <dbl>,
## #   `Bufo sp.` <dbl>, `Chiasmocleis alagoana` <dbl>, `Chiasmocleis
## #   alagoanus` <dbl>, `Chiasmocleis sp. 1` <dbl>, `Chthonerpeton aff.
…
wide para long

1. **key**: variável categórica que irá definir os nomes das colunas

2. **value**: variável numérica que irá preencher os dados

```r
sp_gather <- sp_spread %>% 
  gather(key = record, value = species_number, -id)
sp_gather
```

```
## # A tibble: 16,198 x 3
##    id      record                   species_number
##    <chr>   <chr>                             <dbl>
##  1 amp1001 Adelophryne baturitensis              0
##  2 amp1002 Adelophryne baturitensis              0
##  3 amp1003 Adelophryne baturitensis              0
##  4 amp1004 Adelophryne baturitensis              0
##  5 amp1005 Adelophryne baturitensis              0
##  6 amp1006 Adelophryne baturitensis              0
##  7 amp1007 Adelophryne baturitensis              0
##  8 amp1008 Adelophryne baturitensis              0
##  9 amp1009 Adelophryne baturitensis             72
## 10 amp1010 Adelophryne baturitensis              0
## # … with 16,188 more rows
```
…
# 4.7 dplyr

## **1 select()**

### Seleciona colunas pelo nome

```r
si_select <- si %>% 
  select(id, longitude, latitude)
si_select
```

```
## # A tibble: 1,163 x 3
##    id      longitude latitude
##    <chr>       <dbl>    <dbl>
##  1 amp1001     -43.4    -8.68
##  2 amp1002     -38.9    -3.55
##  3 amp1003     -38.9    -3.57
##  4 amp1004     -38.9    -3.52
##  5 amp1005     -38.9    -4.28
##  6 amp1006     -36.4    -9.23
##  7 amp1007     -40.9    -3.85
##  8 amp1008     -40.9    -3.83
##  9 amp1009     -40.9    -3.84
## 10 amp1010     -35.2    -6.14
## # … with 1,153 more rows
```
…
# 4.7 dplyr

## **1 select()**

### Remove as colunas pelo nome

```r
si_select <- si %>% 
  select(-c(id, longitude, latitude))
si_select
```

```
## # A tibble: 1,163 x 22
##    reference_number species_number record sampled_habitat active_methods
##               <dbl>          <dbl> <chr>  <chr>           <chr>         
##  1             1001             19 ab     fo,ll           as            
##  2             1002             16 co     fo,la,ll        as            
##  3             1002             14 co     fo,la,ll        as            
##  4             1002             13 co     fo,la,ll        as            
##  5             1003             30 co     fo,ll,br        as            
##  6             1004             42 co     tp,pp,la,ll,is  <NA>          
##  7             1005             23 co     sp              as            
##  8             1005             19 co     sp,la,sw        as,sb,tr      
##  9             1005             13 ab     fo              <NA>          
## 10             1006              1 ab     fo              <NA>          
## # … with 1,153 more rows, and 17 more variables: passive_methods <chr>,
## #   complementary_methods <chr>, period <chr>, month_start <dbl>,
## #   year_start <dbl>, month_finish <dbl>, year_finish <dbl>,
## #   effort_months <dbl>, country <chr>, state <chr>,
## #   state_abbreviation <chr>, municipality <chr>, site <chr>,
## #   coordinate_precision <chr>, altitude <dbl>, temperature <dbl>,
## #   precipitation <dbl>
```
…
# 4.7 dplyr

## **1 select()**

### Seleciona colunas por um padrão

```r
#  starts_with(), ends_with() e contains()
si_select <- si %>% 
  select(contains("sp"))
si_select
```

```
## # A tibble: 1,163 x 1
##    species_number
##             <dbl>
##  1             19
##  2             16
##  3             14
##  4             13
##  5             30
##  6             42
##  7             23
##  8             19
##  9             13
## 10              1
## # … with 1,153 more rows
```
…
# 4.7 dplyr

## **3 rename()**

### Renomeia colunas

```r
# rename sp colum
si_rename <- si %>%
  rename(sp = species_number)
si_rename
```

```
## # A tibble: 1,163 x 25
##    id    reference_number    sp record sampled_habitat active_methods
##    <chr>            <dbl> <dbl> <chr>  <chr>           <chr>         
##  1 amp1…             1001    19 ab     fo,ll           as            
##  2 amp1…             1002    16 co     fo,la,ll        as            
##  3 amp1…             1002    14 co     fo,la,ll        as            
##  4 amp1…             1002    13 co     fo,la,ll        as            
##  5 amp1…             1003    30 co     fo,ll,br        as            
##  6 amp1…             1004    42 co     tp,pp,la,ll,is  <NA>          
##  7 amp1…             1005    23 co     sp              as            
##  8 amp1…             1005    19 co     sp,la,sw        as,sb,tr      
##  9 amp1…             1005    13 ab     fo              <NA>          
## 10 amp1…             1006     1 ab     fo              <NA>          
## # … with 1,153 more rows, and 19 more variables: passive_methods <chr>,
## #   complementary_methods <chr>, period <chr>, month_start <dbl>,
## #   year_start <dbl>, month_finish <dbl>, year_finish <dbl>,
## #   effort_months <dbl>, country <chr>, state <chr>,
## #   state_abbreviation <chr>, municipality <chr>, site <chr>,
## #   latitude <dbl>, longitude <dbl>, coordinate_precision <chr>,
## #   altitude <dbl>, temperature <dbl>, precipitation <dbl>
```
…
# 4.7 dplyr

## **4 mutate()**

### Adiciona colunas novas ou vindas de operações

```r
# add colum record as factor
si_mutate <- si %>% 
  mutate(record_factor = as.factor(record))
si_mutate
```

```
## # A tibble: 1,163 x 26
##    id    reference_number species_number record sampled_habitat
##    <chr>            <dbl>          <dbl> <chr>  <chr>          
##  1 amp1…             1001             19 ab     fo,ll          
##  2 amp1…             1002             16 co     fo,la,ll       
##  3 amp1…             1002             14 co     fo,la,ll       
##  4 amp1…             1002             13 co     fo,la,ll       
##  5 amp1…             1003             30 co     fo,ll,br       
##  6 amp1…             1004             42 co     tp,pp,la,ll,is 
##  7 amp1…             1005             23 co     sp             
##  8 amp1…             1005             19 co     sp,la,sw       
##  9 amp1…             1005             13 ab     fo             
## 10 amp1…             1006              1 ab     fo             
## # … with 1,153 more rows, and 21 more variables: active_methods <chr>,
## #   passive_methods <chr>, complementary_methods <chr>, period <chr>,
## #   month_start <dbl>, year_start <dbl>, month_finish <dbl>,
## #   year_finish <dbl>, effort_months <dbl>, country <chr>, state <chr>,
## #   state_abbreviation <chr>, municipality <chr>, site <chr>,
## #   latitude <dbl>, longitude <dbl>, coordinate_precision <chr>,
## #   altitude <dbl>, temperature <dbl>, precipitation <dbl>,
## #   record_factor <fct>
```
…
---

# 4.7 dplyr

## **7 distinct()**
### Remove linhas duplicadas considerando a coluna número de espécies

```r
si_distinct <- si %>% 
  distinct(species_number)
si_distinct
```

```
## # A tibble: 58 x 1
##    species_number
##             <dbl>
##  1             19
##  2             16
##  3             14
##  4             13
##  5             30
##  6             42
##  7             23
##  8              1
##  9              2
## 10              4
## # … with 48 more rows
```
---

# 4.7 dplyr

## **7 distinct()**
### Remove linhas duplicadas considerando a coluna número de espécies e mantém as demais

```r
si_distinct <- si %>% 
  distinct(species_number, .keep_all = TRUE)
si_distinct
```

```
## # A tibble: 58 x 25
##    id    reference_number species_number record sampled_habitat
##    <chr>            <dbl>          <dbl> <chr>  <chr>          
##  1 amp1…             1001             19 ab     fo,ll          
##  2 amp1…             1002             16 co     fo,la,ll       
##  3 amp1…             1002             14 co     fo,la,ll       
##  4 amp1…             1002             13 co     fo,la,ll       
##  5 amp1…             1003             30 co     fo,ll,br       
##  6 amp1…             1004             42 co     tp,pp,la,ll,is 
##  7 amp1…             1005             23 co     sp             
##  8 amp1…             1006              1 ab     fo             
##  9 amp1…             1006              2 ab     fo             
## 10 amp1…             1006              4 ab     fo             
## # … with 48 more rows, and 20 more variables: active_methods <chr>,
## #   passive_methods <chr>, complementary_methods <chr>, period <chr>,
## #   month_start <dbl>, year_start <dbl>, month_finish <dbl>,
## #   year_finish <dbl>, effort_months <dbl>, country <chr>, state <chr>,
## #   state_abbreviation <chr>, municipality <chr>, site <chr>,
## #   latitude <dbl>, longitude <dbl>, coordinate_precision <chr>,
## #   altitude <dbl>, temperature <dbl>, precipitation <dbl>
```
…
# 4.7 dplyr

## **9 n_sample()** 

### Amostrar 100 linhas aleatoriamente

```r
si_sample_n <- si %>% 
  sample_n(100)
si_sample_n
```

```
## # A tibble: 100 x 25
##    id    reference_number species_number record sampled_habitat
##    <chr>            <dbl>          <dbl> <chr>  <chr>          
##  1 amp1…             1207              7 co     tp             
##  2 amp1…             1102             29 co     fo,sw,ll,is,br 
##  3 amp1…             1097              7 co     tp             
##  4 amp1…             1206             10 ab     pp             
##  5 amp1…             1114              3 ab     br             
##  6 amp1…             1181              2 co     ll,is,br       
##  7 amp1…             1286             22 co     fo,tp,sp,pp,la…
##  8 amp1…             1285             17 co     fo,la,sw,is    
##  9 amp1…             1288             21 co     fo,is          
## 10 amp1…             1207              3 co     tp             
## # … with 90 more rows, and 20 more variables: active_methods <chr>,
## #   passive_methods <chr>, complementary_methods <chr>, period <chr>,
## #   month_start <dbl>, year_start <dbl>, month_finish <dbl>,
## #   year_finish <dbl>, effort_months <dbl>, country <chr>, state <chr>,
## #   state_abbreviation <chr>, municipality <chr>, site <chr>,
## #   latitude <dbl>, longitude <dbl>, coordinate_precision <chr>,
## #   altitude <dbl>, temperature <dbl>, precipitation <dbl>
```
…
## **11 join()**

## Adicionar longitute e latitude na tabela de espécies

### Selecionar as colunas que preciso da tabela **si**

```r
si_coord <- si %>% 
  select(id, longitude, latitude)
si_coord 
```

```
## # A tibble: 1,163 x 3
##    id      longitude latitude
##    <chr>       <dbl>    <dbl>
##  1 amp1001     -43.4    -8.68
##  2 amp1002     -38.9    -3.55
##  3 amp1003     -38.9    -3.57
##  4 amp1004     -38.9    -3.52
##  5 amp1005     -38.9    -4.28
##  6 amp1006     -36.4    -9.23
##  7 amp1007     -40.9    -3.85
##  8 amp1008     -40.9    -3.83
##  9 amp1009     -40.9    -3.84
## 10 amp1010     -35.2    -6.14
## # … with 1,153 more rows
```
…
## **11 join()**

## Adicionar longitute e latitude na tabela de espécies

### Join com as tabelas pela coluna "id"

```r
# join dos dados
sp_join <- sp %>% 
  left_join(si_coord, by = "id")
sp_join
```

```
## # A tibble: 17,619 x 12
##    id    order superfamily family subfamily genus species valid_name
##    <chr> <chr> <chr>       <chr>  <chr>     <chr> <chr>   <chr>     
##  1 amp1… <NA>  <NA>        <NA>   <NA>      <NA>  Adenom… <NA>      
##  2 amp1… Anura <NA>        Hylid… Lophyohy… Cory… Coryth… Corythoma…
##  3 amp1… Anura <NA>        Hylid… Dendrops… Dend… Dendro… Dendropso…
##  4 amp1… Anura <NA>        Micro… Gastroph… Derm… Dermat… Dermatono…
##  5 amp1… <NA>  <NA>        <NA>   <NA>      <NA>  Leptod… <NA>      
##  6 amp1… Anura <NA>        Lepto… Leptodac… Lept… Leptod… Leptodact…
##  7 amp1… Anura <NA>        Lepto… Leptodac… Lept… Leptod… Leptodact…
##  8 amp1… Anura <NA>        Lepto… Leptodac… Lept… Leptod… Leptodact…
##  9 amp1… Anura <NA>        Lepto… Leptodac… Lept… Leptod… Leptodact…
## 10 amp1… Anura <NA>        Lepto… Leptodac… Lept… Leptod… Leptodact…
## # … with 17,609 more rows, and 4 more variables: individuals <dbl>,
## #   endemic <dbl>, longitude <dbl>, latitude <dbl>
```
…
---

# 4.7 dplyr
## Manipular os dados de forma mais simples

```r
da <- si %>% 
  select(id, state_abbreviation, species_number)
da
```

```
## # A tibble: 1,163 x 3
##    id      state_abbreviation species_number
##    <chr>   <chr>                       <dbl>
##  1 amp1001 BR-PI                          19
##  2 amp1002 BR-CE                          16
##  3 amp1003 BR-CE                          14
##  4 amp1004 BR-CE                          13
##  5 amp1005 BR-CE                          30
##  6 amp1006 BR-CE                          42
##  7 amp1007 BR-CE                          23
##  8 amp1008 BR-CE                          19
##  9 amp1009 BR-CE                          13
## 10 amp1010 BR-RN                           1
## # … with 1,153 more rows
```

---

# 4.7 dplyr
## Manipular os dados de forma mais simples

```r
da <- si %>% 
  select(id, state_abbreviation, species_number) %>% 
  filter(species_number > 5)
da
```

```
## # A tibble: 934 x 3
##    id      state_abbreviation species_number
##    <chr>   <chr>                       <dbl>
##  1 amp1001 BR-PI                          19
##  2 amp1002 BR-CE                          16
##  3 amp1003 BR-CE                          14
##  4 amp1004 BR-CE                          13
##  5 amp1005 BR-CE                          30
##  6 amp1006 BR-CE                          42
##  7 amp1007 BR-CE                          23
##  8 amp1008 BR-CE                          19
##  9 amp1009 BR-CE                          13
## 10 amp1015 BR-RN                           6
## # … with 924 more rows
```
…
# 4.7 dplyr
## Manipular os dados de forma mais simples

```r
da <- si %>% 
  select(id, state_abbreviation, species_number) %>% 
  filter(species_number > 5) %>% 
  group_by(state_abbreviation) %>% 
  summarise(nsp_state_abb = n())
da
```

```
## # A tibble: 23 x 2
##    state_abbreviation nsp_state_abb
##    <chr>                      <int>
##  1 AR-N                           7
##  2 BR-AL                          3
##  3 BR-BA                         63
##  4 BR-CE                          8
##  5 BR-ES                         33
##  6 BR-GO                          4
##  7 BR-MG                         91
##  8 BR-MS                          1
##  9 BR-PB                         17
## 10 BR-PE                         30
## # … with 13 more rows
```
…
# 4.7 dplyr
## Manipular os dados de forma mais simples

```r
da <- si %>% 
  select(id, state_abbreviation, species_number) %>% 
  filter(species_number > 5) %>% 
  group_by(state_abbreviation) %>% 
  summarise(nsp_state_abb = n()) %>% 
  arrange(nsp_state_abb)
da
```

```
## # A tibble: 23 x 2
##    state_abbreviation nsp_state_abb
##    <chr>                      <int>
##  1 BR-MS                          1
##  2 BR-PI                          1
##  3 PY-13                          1
##  4 PY-14                          1
##  5 PY-2                           1
##  6 PY-4                           1
##  7 PY-7                           1
##  8 BR-AL                          3
##  9 BR-GO                          4
## 10 BR-SE                          4
## # … with 13 more rows
```
…
