Introdução à linguagem R:
…
---

# 7.11 Análises inferenciais quantitativas

## **Regressão linear simples**

```r
# valores ajustados e residuos
augment(mo.lm)
```

```
## # A tibble: 21 x 9
##    tam_medio_femur pct_flo .fitted .se.fit  .resid   .hat .sigma .cooksd
##              <dbl>   <dbl>   <dbl>   <dbl>   <dbl>  <dbl>  <dbl>   <dbl>
##  1            1.17      46    1.15  0.0108  0.0225 0.0492 0.0496 0.00584
##  2            1.17      57    1.13  0.0110  0.0407 0.0511 0.0489 0.0200 
##  3            1.15      78    1.09  0.0160  0.0604 0.109  0.0476 0.106  
##  4            1.08      71    1.11  0.0139 -0.0308 0.0818 0.0493 0.0195 
##  5            1.16      59    1.13  0.0112  0.0302 0.0536 0.0494 0.0116 
##  6            1.26      12    1.21  0.0198  0.0501 0.167  0.0482 0.128  
##  7            1.01      68    1.11  0.0131 -0.105  0.0726 0.0428 0.197  
##  8            1.09      53    1.14  0.0107 -0.0473 0.0482 0.0486 0.0252 
##  9            1.16      49    1.14  0.0106  0.0207 0.0478 0.0496 0.00481
## 10            1.20      29    1.18  0.0141  0.0178 0.0847 0.0497 0.00678
## # … with 11 more rows, and 1 more variable: .std.resid <dbl>
```
…
---

# 7.11 Análises inferenciais quantitativas

## **Regressão linear múltipla**

```r
# valores ajustados e residuos
augment(mo.lm.log10)
```

```
## # A tibble: 21 x 9
##    log10.tam_medio… pct_flo .fitted .se.fit   .resid   .hat .sigma .cooksd
##               <dbl>   <dbl>   <dbl>   <dbl>    <dbl>  <dbl>  <dbl>   <dbl>
##  1          0.0689       46  0.0599 0.00419  0.00907 0.0492 0.0193 0.00628
##  2          0.0686       57  0.0525 0.00427  0.0160  0.0511 0.0190 0.0204 
##  3          0.0622       78  0.0386 0.00624  0.0237  0.109  0.0185 0.108  
##  4          0.0314       71  0.0432 0.00540 -0.0118  0.0818 0.0192 0.0190 
##  5          0.0633       59  0.0512 0.00437  0.0121  0.0536 0.0192 0.0123 
##  6          0.100        12  0.0825 0.00772  0.0175  0.167  0.0189 0.104  
##  7          0.00260      68  0.0452 0.00509 -0.0426  0.0726 0.0164 0.215  
##  8          0.0374       53  0.0552 0.00414 -0.0178  0.0482 0.0189 0.0235 
##  9          0.0663       49  0.0579 0.00413  0.00847 0.0478 0.0193 0.00529
## 10          0.0781       29  0.0712 0.00550  0.00692 0.0847 0.0193 0.00679
## # … with 11 more rows, and 1 more variable: .std.resid <dbl>
```
…
---

# 7.11 Análises inferenciais quantitativas

## **Regressão linear múltipla**

```r
# valores ajustados e residuos
augment(mo.lm.mu)
```

```
## # A tibble: 21 x 10
##    tam_medio_femur pct_flo conect .fitted .se.fit   .resid   .hat .sigma
##              <dbl>   <dbl>  <dbl>   <dbl>   <dbl>    <dbl>  <dbl>  <dbl>
##  1            1.17      46   39.5    1.16  0.0121  0.0111  0.0690 0.0474
##  2            1.17      57   42.4    1.15  0.0165  0.0182  0.128  0.0472
##  3            1.15      78   69.9    1.08  0.0178  0.0766  0.149  0.0429
##  4            1.08      71   58.8    1.11  0.0132 -0.0328  0.0824 0.0467
##  5            1.16      59   44      1.15  0.0163  0.00864 0.124  0.0474
##  6            1.26      12   22.3    1.21  0.0188  0.0505  0.167  0.0455
##  7            1.01      68   57.8    1.11  0.0124 -0.105   0.0726 0.0395
##  8            1.09      53   41.2    1.16  0.0147 -0.0661  0.102  0.0443
##  9            1.16      49   39.9    1.16  0.0134  0.00525 0.0843 0.0474
## 10            1.20      29   33.3    1.18  0.0134  0.0188  0.0849 0.0472
## # … with 11 more rows, and 2 more variables: .cooksd <dbl>,
## #   .std.resid <dbl>
```
…
