Introdução ao geoprocessamento para Etnobiologia e Conservação da Biodiversidade
…
```
## Simple feature collection with 1163 features and 25 fields
## geometry type:  POINT
## dimension:      XY
## bbox:           xmin: -56.74194 ymin: -33.51083 xmax: -34.79667 ymax: -3.51525
## epsg (SRID):    4236
## proj4string:    +proj=longlat +ellps=intl +towgs84=-637,-549,-203,0,0,0,0 +no_defs
## # A tibble: 1,163 x 26
##    id    reference_number species_number record sampled_habitat
##    <chr>            <dbl>          <dbl> <chr>  <chr>          
##  1 amp1…             1001             19 ab     fo,ll          
##  2 amp1…             1002             16 co     fo,la,ll       
##  3 amp1…             1002             14 co     fo,la,ll       
##  4 amp1…             1002             13 co     fo,la,ll       
##  5 amp1…             1003             30 co     fo,ll,br       
##  6 amp1…             1004             42 co     tp,pp,la,ll,is 
##  7 amp1…             1005             23 co     sp             
##  8 amp1…             1005             19 co     sp,la,sw       
##  9 amp1…             1005             13 ab     fo             
## 10 amp1…             1006              1 ab     fo             
## # … with 1,153 more rows, and 21 more variables: active_methods <chr>,
## #   passive_methods <chr>, complementary_methods <chr>, period <chr>,
## #   month_start <dbl>, year_start <dbl>, month_finish <dbl>,
## #   year_finish <dbl>, effort_months <dbl>, country <chr>, state <chr>,
## #   state_abbreviation <chr>, municipality <chr>, site <chr>,
## #   latitude <dbl>, longitude <dbl>, coordinate_precision <chr>,
## #   altitude <dbl>, temperature <dbl>, precipitation <dbl>,
## #   geometry <POINT [°]>
```
…
