Introdução à linguagem R:
…
---

# 8.6 Ajuste dos modelos no R

```r
# valores ajustados e residuos
augment(mo.glm.ga)
```

```
## # A tibble: 21 x 9
##    tam_medio_femur pct_flo .fitted .se.fit  .resid   .hat .sigma .cooksd
##              <dbl>   <dbl>   <dbl>   <dbl>   <dbl>  <dbl>  <dbl>   <dbl>
##  1            1.17      46    1.15  0.0108  0.0225 0.0492 0.0496 0.00584
##  2            1.17      57    1.13  0.0110  0.0407 0.0511 0.0489 0.0200 
##  3            1.15      78    1.09  0.0160  0.0604 0.109  0.0476 0.106  
##  4            1.08      71    1.11  0.0139 -0.0308 0.0818 0.0493 0.0195 
##  5            1.16      59    1.13  0.0112  0.0302 0.0536 0.0494 0.0116 
##  6            1.26      12    1.21  0.0198  0.0501 0.167  0.0482 0.128  
##  7            1.01      68    1.11  0.0131 -0.105  0.0726 0.0428 0.197  
##  8            1.09      53    1.14  0.0107 -0.0473 0.0482 0.0486 0.0252 
##  9            1.16      49    1.14  0.0106  0.0207 0.0478 0.0496 0.00481
## 10            1.20      29    1.18  0.0141  0.0178 0.0847 0.0497 0.00678
## # … with 11 more rows, and 1 more variable: .std.resid <dbl>
```
…
---

# 8.6 Ajuste dos modelos no R

```r
# valores ajustados e residuos
augment(mo.glm.bi)
```

```
## # A tibble: 21 x 9
##    pres_inv pct_flo  .fitted .se.fit   .resid    .hat .sigma .cooksd
##       <dbl>   <dbl>    <dbl>   <dbl>    <dbl>   <dbl>  <dbl>   <dbl>
##  1        0      46  -2.51     1.79  -0.395   0.221    0.701 1.47e-2
##  2        0      57   0.0224   0.863 -1.19    0.186    0.637 1.44e-1
##  3        1      78   4.86     2.58   0.124   0.0506   0.708 2.16e-4
##  4        1      71   3.25     1.77   0.276   0.113    0.705 2.78e-3
##  5        1      59   0.484    0.842  0.980   0.167    0.662 7.43e-2
##  6        0      12 -10.4      5.90  -0.00798 0.00111  0.709 1.77e-8
##  7        1      68   2.56     1.45   0.386   0.141    0.702 7.36e-3
##  8        1      53  -0.900    1.09   1.58    0.245    0.565 5.29e-1
##  9        0      49  -1.82     1.46  -0.547   0.257    0.693 3.76e-2
## 10        0      29  -6.43     3.80  -0.0566  0.0232   0.709 1.95e-5
## # … with 11 more rows, and 1 more variable: .std.resid <dbl>
```
…
---

# 8.6 Ajuste dos modelos no R

```r
# valores ajustados e residuos
augment(mo.glm.po)
```

```
## # A tibble: 21 x 9
##     n_sp pct_flo .fitted .se.fit  .resid   .hat .sigma   .cooksd .std.resid
##    <dbl>   <dbl>   <dbl>   <dbl>   <dbl>  <dbl>  <dbl>     <dbl>      <dbl>
##  1     7      46    1.94  0.0880  0.0157 0.0538  0.511   7.46e-6     0.0162
##  2     6      57    2.07  0.0788 -0.727  0.0495  0.480   1.32e-2    -0.746 
##  3    11      78    2.33  0.107   0.216  0.117   0.508   3.60e-3     0.230 
##  4     8      71    2.25  0.0922 -0.485  0.0803  0.497   1.06e-2    -0.506 
##  5     7      59    2.10  0.0790 -0.416  0.0510  0.501   4.67e-3    -0.427 
##  6     3      12    1.52  0.176  -0.792  0.142   0.469   5.29e-2    -0.855 
##  7     9      68    2.21  0.0872 -0.0368 0.0693  0.511   5.41e-5    -0.0382
##  8     9      53    2.03  0.0802  0.500  0.0487  0.496   7.15e-3     0.513 
##  9     8      49    1.98  0.0838  0.286  0.0508  0.506   2.38e-3     0.293 
## 10     6      29    1.73  0.126   0.146  0.0894  0.510   1.17e-3     0.153 
## # … with 11 more rows
```
…
